{
  "task_id": "frontier_backwards_compat",
  "category": "diagnostic",
  "title": "Evolve pagination library with 5 new features while maintaining backward compatibility",
  "difficulty": "hard",
  "goal": "The pagination.py library is used by 3 consumer files (consumer_list_view.py, consumer_api.py, consumer_export.py). Add cursor pagination, filtering, sorting, serialization formats, and window pagination \u2014 all while ensuring the consumer files continue to work unchanged. The test file has 45 tests: 19 verify existing behavior and backward compatibility (must remain passing), 26 test new features.",
  "hints": "Consumer files must NOT be modified \u2014 they verify backward compatibility. Return NEW Paginator instances from filter() and sort() to maintain immutability. to_dict() format must remain identical; add cursor fields only when cursor pagination is used. Cursor can be based on item index encoded as a string",
  "environment": {
    "env_type": "local",
    "repo_url": null,
    "base_commit": null,
    "clone_depth": null,
    "setup_commands": [
      "cp test_backwards_compat.py test_backwards_compat.py.orig"
    ],
    "seed_files": {
      "pagination.py": "class Page:\n    def __init__(self, items, page_num, page_size, total_items):\n        self.items = items\n        self.page_num = page_num\n        self.page_size = page_size\n        self.total_items = total_items\n\n    @property\n    def total_pages(self):\n        return (self.total_items + self.page_size - 1) // self.page_size\n\n    @property\n    def has_next(self):\n        return self.page_num < self.total_pages\n\n    @property\n    def has_prev(self):\n        return self.page_num > 1\n\n    def to_dict(self):\n        return {\n            \"items\": self.items,\n            \"page\": self.page_num,\n            \"page_size\": self.page_size,\n            \"total\": self.total_items,\n            \"pages\": self.total_pages,\n        }\n\n\nclass Paginator:\n    def __init__(self, items, page_size=10):\n        self.items = list(items)\n        self.page_size = page_size\n\n    def get_page(self, page_num):\n        if page_num < 1:\n            raise ValueError(\"Page number must be >= 1\")\n        start = (page_num - 1) * self.page_size\n        end = start + self.page_size\n        return Page(\n            items=self.items[start:end],\n            page_num=page_num,\n            page_size=self.page_size,\n            total_items=len(self.items),\n        )\n\n    def __iter__(self):\n        for i in range(1, (len(self.items) + self.page_size - 1) // self.page_size + 1):\n            yield self.get_page(i)\n",
      "consumer_list_view.py": "from pagination import Paginator\n\n\ndef render_list(data, page_num, page_size=10):\n    p = Paginator(data, page_size=page_size)\n    page = p.get_page(page_num)\n    result = {\"items\": page.items, \"has_next\": page.has_next, \"has_prev\": page.has_prev}\n    return result\n\n\ndef render_all_pages(data, page_size=5):\n    p = Paginator(data, page_size)\n    return [page.to_dict() for page in p]\n",
      "consumer_api.py": "from pagination import Paginator\n\n\ndef api_list(data, page=1, per_page=20):\n    paginator = Paginator(data, page_size=per_page)\n    page_obj = paginator.get_page(page)\n    response = page_obj.to_dict()\n    response[\"has_next\"] = page_obj.has_next\n    response[\"has_prev\"] = page_obj.has_prev\n    return response\n",
      "consumer_export.py": "from pagination import Paginator\n\n\ndef export_all(data, chunk_size=100):\n    all_items = []\n    for page in Paginator(data, page_size=chunk_size):\n        all_items.extend(page.items)\n    return all_items\n\n\ndef count_pages(data, chunk_size=100):\n    p = Paginator(data, chunk_size)\n    page = p.get_page(1)\n    return page.total_pages\n",
      "test_backwards_compat.py": "\"\"\"Test suite for backwards-compatible pagination library evolution.\n\n45 tests total:\n- 17 tests verify existing behavior (must pass against unmodified seed)\n- 28 tests verify new features (should fail against seed, pass after implementation)\n\"\"\"\nimport json\nimport pytest\nfrom pagination import Page, Paginator\n\n\n# ---------------------------------------------------------------------------\n# Helper data\n# ---------------------------------------------------------------------------\nSAMPLE_DATA = list(range(1, 51))  # 1..50\nSMALL_DATA = list(range(1, 13))   # 1..12\nWORDS = [\"apple\", \"banana\", \"cherry\", \"date\", \"elderberry\",\n         \"fig\", \"grape\", \"honeydew\", \"kiwi\", \"lemon\"]\n\n\n# ===========================================================================\n# SECTION 1: Existing Behavior (17 tests \u2014 must pass against unmodified seed)\n# ===========================================================================\n\nclass TestExistingBehavior:\n    \"\"\"8 tests: core Page/Paginator API contracts.\"\"\"\n\n    def test_get_page_returns_correct_items(self):\n        p = Paginator(SAMPLE_DATA, page_size=10)\n        page = p.get_page(1)\n        assert page.items == list(range(1, 11))\n\n    def test_get_page_second_page(self):\n        p = Paginator(SAMPLE_DATA, page_size=10)\n        page = p.get_page(2)\n        assert page.items == list(range(11, 21))\n\n    def test_has_next_true(self):\n        p = Paginator(SAMPLE_DATA, page_size=10)\n        page = p.get_page(1)\n        assert page.has_next is True\n\n    def test_has_next_false_on_last(self):\n        p = Paginator(SAMPLE_DATA, page_size=10)\n        page = p.get_page(5)\n        assert page.has_next is False\n\n    def test_has_prev(self):\n        p = Paginator(SAMPLE_DATA, page_size=10)\n        assert p.get_page(1).has_prev is False\n        assert p.get_page(2).has_prev is True\n\n    def test_to_dict_format(self):\n        p = Paginator(SMALL_DATA, page_size=5)\n        d = p.get_page(1).to_dict()\n        assert d == {\n            \"items\": [1, 2, 3, 4, 5],\n            \"page\": 1,\n            \"page_size\": 5,\n            \"total\": 12,\n            \"pages\": 3,\n        }\n\n    def test_iteration(self):\n        p = Paginator(SMALL_DATA, page_size=5)\n        pages = list(p)\n        assert len(pages) == 3\n        assert pages[0].items == [1, 2, 3, 4, 5]\n        assert pages[1].items == [6, 7, 8, 9, 10]\n        assert pages[2].items == [11, 12]\n\n    def test_invalid_page_number(self):\n        p = Paginator(SAMPLE_DATA, page_size=10)\n        with pytest.raises(ValueError):\n            p.get_page(0)\n\n\nclass TestConsumerListView:\n    \"\"\"3 tests: consumer_list_view.py still works.\"\"\"\n\n    def test_render_list_first_page(self):\n        from consumer_list_view import render_list\n        result = render_list(SAMPLE_DATA, 1, page_size=10)\n        assert result[\"items\"] == list(range(1, 11))\n        assert result[\"has_next\"] is True\n        assert result[\"has_prev\"] is False\n\n    def test_render_list_last_page(self):\n        from consumer_list_view import render_list\n        result = render_list(SAMPLE_DATA, 5, page_size=10)\n        assert result[\"items\"] == list(range(41, 51))\n        assert result[\"has_next\"] is False\n        assert result[\"has_prev\"] is True\n\n    def test_render_all_pages(self):\n        from consumer_list_view import render_all_pages\n        pages = render_all_pages(SMALL_DATA, page_size=4)\n        assert len(pages) == 3\n        assert pages[0][\"items\"] == [1, 2, 3, 4]\n        assert pages[0][\"page\"] == 1\n        assert pages[2][\"items\"] == [9, 10, 11, 12]\n\n\nclass TestConsumerApi:\n    \"\"\"3 tests: consumer_api.py still works.\"\"\"\n\n    def test_api_list_basic(self):\n        from consumer_api import api_list\n        resp = api_list(SAMPLE_DATA, page=1, per_page=10)\n        assert resp[\"items\"] == list(range(1, 11))\n        assert resp[\"page\"] == 1\n        assert resp[\"total\"] == 50\n\n    def test_api_list_has_next_prev(self):\n        from consumer_api import api_list\n        resp = api_list(SAMPLE_DATA, page=3, per_page=10)\n        assert resp[\"has_next\"] is True\n        assert resp[\"has_prev\"] is True\n\n    def test_api_list_to_dict_keys(self):\n        from consumer_api import api_list\n        resp = api_list(SMALL_DATA, page=1, per_page=5)\n        # to_dict produces: items, page, page_size, total, pages\n        # consumer adds: has_next, has_prev\n        for key in [\"items\", \"page\", \"page_size\", \"total\", \"pages\", \"has_next\", \"has_prev\"]:\n            assert key in resp\n\n\nclass TestConsumerExport:\n    \"\"\"3 tests: consumer_export.py still works.\"\"\"\n\n    def test_export_all(self):\n        from consumer_export import export_all\n        result = export_all(SAMPLE_DATA, chunk_size=15)\n        assert result == SAMPLE_DATA\n\n    def test_export_preserves_order(self):\n        from consumer_export import export_all\n        data = list(reversed(range(100)))\n        assert export_all(data, chunk_size=30) == data\n\n    def test_count_pages(self):\n        from consumer_export import count_pages\n        assert count_pages(SAMPLE_DATA, chunk_size=10) == 5\n        assert count_pages(SAMPLE_DATA, chunk_size=15) == 4\n\n\n# ===========================================================================\n# SECTION 2: New Features (28 tests \u2014 should fail against seed)\n# ===========================================================================\n\nclass TestCursorPagination:\n    \"\"\"6 tests: cursor-based pagination.\"\"\"\n\n    def test_get_page_after_returns_page(self):\n        p = Paginator(SAMPLE_DATA, page_size=10)\n        first = p.get_page(1)\n        cursor = first.next_cursor\n        second = p.get_page_after(cursor)\n        assert second.items == list(range(11, 21))\n\n    def test_get_page_before_returns_page(self):\n        p = Paginator(SAMPLE_DATA, page_size=10)\n        second = p.get_page(2)\n        cursor = second.prev_cursor\n        first = p.get_page_before(cursor)\n        assert first.items == list(range(1, 11))\n\n    def test_next_cursor_none_on_last_page(self):\n        p = Paginator(SAMPLE_DATA, page_size=10)\n        last = p.get_page(5)\n        assert last.next_cursor is None\n\n    def test_prev_cursor_none_on_first_page(self):\n        p = Paginator(SAMPLE_DATA, page_size=10)\n        first = p.get_page(1)\n        assert first.prev_cursor is None\n\n    def test_cursor_round_trip(self):\n        \"\"\"Navigate forward then back to same page.\"\"\"\n        p = Paginator(SAMPLE_DATA, page_size=10)\n        page1 = p.get_page(1)\n        page2 = p.get_page_after(page1.next_cursor)\n        page1_again = p.get_page_before(page2.prev_cursor)\n        assert page1_again.items == page1.items\n\n    def test_cursor_page_to_dict_has_cursors(self):\n        \"\"\"to_dict on cursor-fetched page includes cursor fields.\"\"\"\n        p = Paginator(SAMPLE_DATA, page_size=10)\n        first = p.get_page(1)\n        second = p.get_page_after(first.next_cursor)\n        d = second.to_dict()\n        # Must still have all original keys\n        for key in [\"items\", \"page\", \"page_size\", \"total\", \"pages\"]:\n            assert key in d\n        # Must also have cursor keys\n        assert \"next_cursor\" in d\n        assert \"prev_cursor\" in d\n\n\nclass TestFiltering:\n    \"\"\"5 tests: filter() method.\"\"\"\n\n    def test_filter_basic(self):\n        p = Paginator(SAMPLE_DATA, page_size=10)\n        evens = p.filter(lambda x: x % 2 == 0)\n        page = evens.get_page(1)\n        assert all(x % 2 == 0 for x in page.items)\n\n    def test_filter_returns_new_paginator(self):\n        p = Paginator(SAMPLE_DATA, page_size=10)\n        evens = p.filter(lambda x: x % 2 == 0)\n        # Original unchanged\n        assert len(p.items) == 50\n        assert len(evens.items) == 25\n\n    def test_filter_chaining(self):\n        p = Paginator(SAMPLE_DATA, page_size=10)\n        result = p.filter(lambda x: x % 2 == 0).filter(lambda x: x > 20)\n        page = result.get_page(1)\n        assert all(x % 2 == 0 and x > 20 for x in page.items)\n\n    def test_filter_preserves_page_size(self):\n        p = Paginator(SAMPLE_DATA, page_size=7)\n        filtered = p.filter(lambda x: x <= 30)\n        page = filtered.get_page(1)\n        assert len(page.items) == 7\n\n    def test_filter_total_items_updated(self):\n        p = Paginator(SAMPLE_DATA, page_size=10)\n        filtered = p.filter(lambda x: x <= 10)\n        page = filtered.get_page(1)\n        assert page.total_items == 10\n\n\nclass TestSorting:\n    \"\"\"5 tests: sort() method.\"\"\"\n\n    def test_sort_basic(self):\n        p = Paginator([3, 1, 4, 1, 5, 9, 2, 6], page_size=4)\n        sorted_p = p.sort()\n        page = sorted_p.get_page(1)\n        assert page.items == [1, 1, 2, 3]\n\n    def test_sort_reverse(self):\n        p = Paginator([3, 1, 4, 1, 5, 9, 2, 6], page_size=4)\n        sorted_p = p.sort(reverse=True)\n        page = sorted_p.get_page(1)\n        assert page.items == [9, 6, 5, 4]\n\n    def test_sort_with_key(self):\n        p = Paginator(WORDS, page_size=5)\n        sorted_p = p.sort(key=lambda x: len(x))\n        page = sorted_p.get_page(1)\n        # Shortest words first\n        lengths = [len(w) for w in page.items]\n        assert lengths == sorted(lengths)\n\n    def test_sort_returns_new_paginator(self):\n        original_items = [3, 1, 4, 1, 5]\n        p = Paginator(original_items, page_size=3)\n        sorted_p = p.sort()\n        assert p.items == [3, 1, 4, 1, 5]  # unchanged\n        assert sorted_p.items == [1, 1, 3, 4, 5]\n\n    def test_sort_chain_with_filter(self):\n        p = Paginator(SAMPLE_DATA, page_size=10)\n        result = p.filter(lambda x: x % 2 == 0).sort(reverse=True)\n        page = result.get_page(1)\n        assert page.items == [50, 48, 46, 44, 42, 40, 38, 36, 34, 32]\n\n\nclass TestSerialization:\n    \"\"\"5 tests: to_json, to_csv, from_dict.\"\"\"\n\n    def test_to_json(self):\n        p = Paginator(SMALL_DATA, page_size=5)\n        page = p.get_page(1)\n        j = page.to_json()\n        parsed = json.loads(j)\n        assert parsed[\"items\"] == [1, 2, 3, 4, 5]\n        assert parsed[\"page\"] == 1\n\n    def test_to_csv_default(self):\n        p = Paginator([10, 20, 30], page_size=10)\n        page = p.get_page(1)\n        csv_str = page.to_csv()\n        lines = csv_str.strip().split(\"\\n\")\n        assert lines == [\"10\", \"20\", \"30\"]\n\n    def test_to_csv_with_header(self):\n        p = Paginator([10, 20, 30], page_size=10)\n        page = p.get_page(1)\n        csv_str = page.to_csv(header=\"value\")\n        lines = csv_str.strip().split(\"\\n\")\n        assert lines[0] == \"value\"\n        assert lines[1:] == [\"10\", \"20\", \"30\"]\n\n    def test_from_dict(self):\n        p = Paginator(SMALL_DATA, page_size=5)\n        original = p.get_page(2)\n        d = original.to_dict()\n        restored = Page.from_dict(d)\n        assert restored.items == original.items\n        assert restored.page_num == original.page_num\n        assert restored.page_size == original.page_size\n        assert restored.total_items == original.total_items\n\n    def test_to_dict_unchanged(self):\n        \"\"\"to_dict() on a normal (non-cursor) page must be identical to original format.\"\"\"\n        p = Paginator(SMALL_DATA, page_size=5)\n        d = p.get_page(1).to_dict()\n        assert set(d.keys()) == {\"items\", \"page\", \"page_size\", \"total\", \"pages\"}\n        assert d == {\n            \"items\": [1, 2, 3, 4, 5],\n            \"page\": 1,\n            \"page_size\": 5,\n            \"total\": 12,\n            \"pages\": 3,\n        }\n\n\nclass TestWindowPagination:\n    \"\"\"4 tests: get_page_range and get_window.\"\"\"\n\n    def test_get_page_range(self):\n        p = Paginator(SAMPLE_DATA, page_size=10)\n        pages = p.get_page_range(2, 4)\n        assert len(pages) == 3\n        assert pages[0].page_num == 2\n        assert pages[2].page_num == 4\n\n    def test_get_page_range_single(self):\n        p = Paginator(SAMPLE_DATA, page_size=10)\n        pages = p.get_page_range(3, 3)\n        assert len(pages) == 1\n        assert pages[0].page_num == 3\n\n    def test_get_window(self):\n        p = Paginator(SAMPLE_DATA, page_size=10)\n        pages = p.get_window(3, radius=1)\n        page_nums = [pg.page_num for pg in pages]\n        assert page_nums == [2, 3, 4]\n\n    def test_get_window_clamps_to_bounds(self):\n        p = Paginator(SAMPLE_DATA, page_size=10)\n        # Window around page 1 with radius 2: can't go below 1\n        pages = p.get_window(1, radius=2)\n        page_nums = [pg.page_num for pg in pages]\n        assert page_nums[0] == 1\n        assert all(n >= 1 for n in page_nums)\n\n\nclass TestBackwardsCompatibility:\n    \"\"\"3 tests: stress-test that new features don't break old patterns.\"\"\"\n\n    def test_filtered_paginator_iterates(self):\n        \"\"\"filter() result still supports __iter__.\"\"\"\n        p = Paginator(SAMPLE_DATA, page_size=10)\n        filtered = p.filter(lambda x: x <= 25)\n        all_items = []\n        for page in filtered:\n            all_items.extend(page.items)\n        assert all_items == list(range(1, 26))\n\n    def test_sorted_paginator_to_dict(self):\n        \"\"\"sort() result pages have correct to_dict format.\"\"\"\n        p = Paginator([5, 3, 1, 4, 2], page_size=3)\n        sorted_p = p.sort()\n        d = sorted_p.get_page(1).to_dict()\n        assert set(d.keys()) == {\"items\", \"page\", \"page_size\", \"total\", \"pages\"}\n        assert d[\"items\"] == [1, 2, 3]\n\n    def test_consumer_files_unchanged_after_enhancements(self):\n        \"\"\"Import and run all consumer functions \u2014 they must still work.\"\"\"\n        from consumer_list_view import render_list, render_all_pages\n        from consumer_api import api_list\n        from consumer_export import export_all, count_pages\n\n        data = list(range(1, 101))\n\n        r1 = render_list(data, 1, page_size=20)\n        assert len(r1[\"items\"]) == 20\n\n        r2 = render_all_pages(data, page_size=25)\n        assert len(r2) == 4\n\n        r3 = api_list(data, page=2, per_page=10)\n        assert r3[\"page\"] == 2\n\n        r4 = export_all(data, chunk_size=30)\n        assert r4 == data\n\n        r5 = count_pages(data, chunk_size=10)\n        assert r5 == 10\n"
    },
    "workdir": ".",
    "env_vars": {}
  },
  "eval_spec": {
    "method": "script_check",
    "expected_patch": null,
    "expected_content": {},
    "expected_files": [],
    "check_command": null,
    "expected_output": null,
    "output_contains": null,
    "output_not_contains": null,
    "test_command": null,
    "check_script": null,
    "check_script_content": "#!/bin/bash\nset +e\n\ncd \"$WORKDIR\"\n\n# Run all tests\nOUTPUT=$(timeout 60 python3 -m pytest test_backwards_compat.py -v --tb=short 2>&1)\necho \"$OUTPUT\"\n\n# Count passed tests\nPASSED=$(echo \"$OUTPUT\" | grep -c \" PASSED\")\nTOTAL=45\n\necho \"\"\necho \"Score: ${PASSED}/${TOTAL}\"\n",
    "rubric": null,
    "sub_evals": null,
    "pass_threshold": 1.0
  },
  "capabilities": [
    "code_writing",
    "code_editing",
    "test_running"
  ],
  "allowed_tools": null,
  "ground_truth": null,
  "solution_patch": null,
  "estimated_minutes": 10,
  "generated_at": "2026-03-12T00:15:39.434298+00:00",
  "source": "frontier_generation"
}